{
  "ag" : [ {
    "name" : "awa",
    "phone" : "asd",
    "email" : "asd6aaa4"
  }, {
    "name" : "uwu",
    "phone" : "asd",
    "email" : "asd6aaaa4"
  }, {
    "name" : "iwi",
    "phone" : "asd",
    "email" : "owo"
  }, {
    "name" : "aaa",
    "phone" : "ddd",
    "email" : "ddd"
  }, {
    "name" : "asdasd",
    "phone" : "ddd",
    "email" : "ddd"
  } ]
}